<?xml version="1.0" encoding="UTF-8" standalone="no"?>
<svg
   xmlns:dc="http://purl.org/dc/elements/1.1/"
   xmlns:cc="http://creativecommons.org/ns#"
   xmlns:rdf="http://www.w3.org/1999/02/22-rdf-syntax-ns#"
   xmlns:svg="http://www.w3.org/2000/svg"
   xmlns="http://www.w3.org/2000/svg"
   xmlns:xlink="http://www.w3.org/1999/xlink"
   xmlns:sodipodi="http://sodipodi.sourceforge.net/DTD/sodipodi-0.dtd"
   xmlns:inkscape="http://www.inkscape.org/namespaces/inkscape"
   width="564"
   height="168"
   id="svg-badge"
   version="1.1"
   inkscape:version="1.0 (4035a4fb49, 2020-05-01)"
   sodipodi:docname="get-it-on-white-on-black.svg"
   inkscape:export-filename="/home/peter/git/GetItOnCodeberg/get-it-on-en.png"
   inkscape:export-xdpi="96"
   inkscape:export-ydpi="96">
  <defs
     id="defs8504">
    <linearGradient
       id="linearGradient6924">
      <stop
         id="stop6920"
         offset="0"
         style="stop-color:#ffffff;stop-opacity:0" />
      <stop
         style="stop-color:#71c2ff;stop-opacity:1"
         offset="0.49517274"
         id="stop6926" />
      <stop
         id="stop6922"
         offset="1"
         style="stop-color:#39aaff;stop-opacity:1" />
    </linearGradient>
    <linearGradient
       inkscape:collect="always"
       xlink:href="#linearGradient6924-3"
       id="linearGradient931"
       gradientUnits="userSpaceOnUse"
       x1="42519.285"
       y1="-7078.7891"
       x2="42575.336"
       y2="-6966.9307" />
    <linearGradient
       id="linearGradient6924-3">
      <stop
         id="stop6920-6"
         offset="0"
         style="stop-color:#ffffff;stop-opacity:0" />
      <stop
         style="stop-color:#ffffff;stop-opacity:1"
         offset="0.49517274"
         id="stop6926-7" />
      <stop
         id="stop6922-5"
         offset="1"
         style="stop-color:#ffffff;stop-opacity:1" />
    </linearGradient>
  </defs>
  <sodipodi:namedview
     id="base"
     pagecolor="#ffffff"
     bordercolor="#666666"
     borderopacity="1.0"
     inkscape:pageopacity="0.0"
     inkscape:pageshadow="2"
     inkscape:zoom="1.4142136"
     inkscape:cx="119.5049"
     inkscape:cy="148.85197"
     inkscape:document-units="px"
     inkscape:current-layer="layer1"
     showgrid="true"
     fit-margin-top="0"
     fit-margin-left="0"
     fit-margin-right="0"
     fit-margin-bottom="0"
     inkscape:window-width="1920"
     inkscape:window-height="1052"
     inkscape:window-x="1920"
     inkscape:window-y="0"
     inkscape:window-maximized="1"
     inkscape:document-rotation="0" />
  <metadata
     id="metadata8507">
    <rdf:RDF>
      <cc:Work
         rdf:about="">
        <dc:format>image/svg+xml</dc:format>
        <dc:type
           rdf:resource="http://purl.org/dc/dcmitype/StillImage" />
        <dc:title></dc:title>
        <dc:creator>
          <cc:Agent>
            <dc:title>Andrew Nayenko</dc:title>
          </cc:Agent>
        </dc:creator>
        <dc:publisher>
          <cc:Agent>
            <dc:title>https://f-droid.org</dc:title>
          </cc:Agent>
        </dc:publisher>
        <cc:license
           rdf:resource="http://creativecommons.org/licenses/by-sa/4.0/" />
        <dc:contributor>
          <cc:Agent>
            <dc:title />
          </cc:Agent>
        </dc:contributor>
      </cc:Work>
      <cc:License
         rdf:about="http://creativecommons.org/licenses/by-sa/4.0/">
        <cc:permits
           rdf:resource="http://creativecommons.org/ns#Reproduction" />
        <cc:permits
           rdf:resource="http://creativecommons.org/ns#Distribution" />
        <cc:requires
           rdf:resource="http://creativecommons.org/ns#Notice" />
        <cc:requires
           rdf:resource="http://creativecommons.org/ns#Attribution" />
        <cc:permits
           rdf:resource="http://creativecommons.org/ns#DerivativeWorks" />
        <cc:requires
           rdf:resource="http://creativecommons.org/ns#ShareAlike" />
      </cc:License>
    </rdf:RDF>
  </metadata>
  <g
     inkscape:label="Layer 1"
     inkscape:groupmode="layer"
     id="layer1"
     transform="translate(-289,-312.36218)">
    <g
       transform="matrix(0.99299386,0,0,0.97590337,-36.712242,-30.461048)"
       id="g2903">
      <rect
         ry="20"
         rx="20"
         y="355.36218"
         x="332"
         height="164"
         width="560"
         id="rect"
         style="color:#000000;display:inline;overflow:visible;visibility:visible;fill:#000000;fill-opacity:1;fill-rule:nonzero;stroke:#a6a6a6;stroke-width:4;stroke-miterlimit:4;stroke-dasharray:none;stroke-opacity:1;marker:none;enable-background:accumulate" />
      <text
         xml:space="preserve"
         style="color:#000000;font-style:normal;font-variant:normal;font-weight:normal;font-stretch:normal;line-height:0%;font-family:'DejaVu Sans';-inkscape-font-specification:'DejaVu Sans';letter-spacing:0px;word-spacing:0px;display:inline;overflow:visible;visibility:visible;fill:#ffffff;fill-opacity:1;fill-rule:nonzero;stroke:none;stroke-width:1px;marker:none;enable-background:accumulate"
         x="508.95129"
         y="402.36697"
         id="text3013"><tspan
           style="font-style:normal;font-variant:normal;font-weight:normal;font-stretch:normal;font-size:34.125px;line-height:1;font-family:'DejaVu Sans';-inkscape-font-specification:'DejaVu Sans'"
           sodipodi:role="line"
           id="claim-svg"
           x="508.95129"
           y="402.36697">GET IT ON</tspan></text>
      <path
         d="m 538.13517,425.09233 c -8.53154,0 -15.18625,2.86511 -19.98557,8.5932 -4.84759,5.72702 -7.28211,13.29065 -7.28211,22.68982 0,7.22259 1.78031,13.51105 5.3302,18.86538 4.90658,7.47032 12.38709,11.20468 22.40401,11.20468 6.97109,0 13.0413,-2.58305 18.21599,-7.75078 l -4.76179,-7.37755 c -4.61164,2.92678 -8.59053,4.38964 -11.95274,4.38964 -5.1157,0 -9.19647,-1.96102 -12.23157,-5.88253 -2.87424,-3.7365 -4.31135,-8.21891 -4.31135,-13.44884 0,-5.9147 1.22262,-10.70812 3.64641,-14.38081 2.79916,-4.29527 6.75659,-6.44344 11.85621,-6.44344 3.68395,0 7.754,1.6173 12.22086,4.8551 l 4.77787,-7.7481 c -5.97905,-5.04224 -11.95273,-7.56577 -17.92642,-7.56577 z m 169.2473,0 -11.76505,6.6295 v 53.60231 h 9.52894 l 0.93305,-4.20089 c 2.86887,3.54829 6.90674,5.32216 12.14042,5.32216 5.2873,0 9.72735,-1.58941 13.34695,-4.76393 4.60092,-4.17086 6.91211,-10.30274 6.91211,-18.39563 0,-6.28685 -1.56045,-11.32963 -4.67599,-15.1278 -3.55526,-4.2958 -8.45647,-6.44343 -14.74654,-6.44343 -2.24683,0 -4.30599,0.42899 -6.16137,1.30788 -2.37017,1.11967 -4.21482,2.67797 -5.51252,4.66849 z m -63.32429,0.18768 -11.78114,6.53781 v 13.54 c -2.9225,-2.36588 -6.53138,-3.54775 -10.82128,-3.54775 -4.97628,0 -9.24473,1.64947 -12.7839,4.94947 -4.73498,4.42021 -7.12123,10.70706 -7.12123,18.86269 0,5.78976 1.48001,10.52259 4.40251,14.19582 3.48554,4.41967 8.56371,6.62951 15.22378,6.62951 2.36481,0 4.66527,-0.53088 6.90138,-1.58888 2.2522,-1.05799 3.86627,-2.3959 4.86903,-4.0132 l 1.67843,4.48027 h 9.43242 z m -66.25215,16.53006 c -6.11311,0 -11.05722,1.92831 -14.85378,5.78761 -4.17729,4.23413 -6.26326,9.77508 -6.26326,16.62229 0,6.03911 1.87147,11.14624 5.60368,15.31656 4.17193,4.60628 9.35735,6.91103 15.51336,6.91103 5.30339,0 9.93112,-1.80605 13.91,-5.41654 4.79396,-4.2958 7.19094,-9.90002 7.19094,-16.81105 0,-5.91255 -1.61407,-10.92369 -4.85295,-15.03395 -3.86091,-4.91784 -9.27691,-7.37595 -16.24799,-7.37595 z m 92.59214,0 c -6.0434,0 -11.01432,1.99319 -14.95567,5.9769 -4.35425,4.35854 -6.53674,9.86624 -6.53674,16.52792 0,6.78662 1.94118,12.10878 5.79673,15.96969 4.05396,4.10758 9.68445,6.16298 16.91294,6.16298 6.70833,0 12.31737,-1.99266 16.79496,-5.97798 l -2.99221,-6.25575 c -4.40787,2.49083 -8.63879,3.7349 -12.68738,3.7349 -2.86887,0 -5.35165,-0.93306 -7.46979,-2.80131 -2.06988,-1.92992 -3.22279,-4.32743 -3.44801,-7.18987 h 29.1177 v -4.29473 c 0,-6.16405 -1.61407,-11.17733 -4.85295,-15.03664 -3.72685,-4.54514 -8.96589,-6.81611 -15.67958,-6.81611 z m 93.39649,0 c -6.03267,0 -11.00896,1.99319 -14.93958,5.9769 -4.36497,4.35854 -6.53137,9.86624 -6.53137,16.52792 0,6.78662 1.92509,12.10878 5.786,15.96969 4.03787,4.10758 9.67373,6.16298 16.90757,6.16298 6.71906,0 12.31738,-1.99266 16.80569,-5.97798 l -2.98148,-6.25575 c -4.42932,2.49083 -8.6656,3.7349 -12.70347,3.7349 -2.86351,0 -5.35701,-0.93306 -7.47515,-2.80131 -2.05915,-1.92992 -3.21206,-4.32743 -3.45873,-7.18987 h 29.14451 v -4.29473 c 0,-6.16405 -1.61944,-11.17733 -4.85831,-15.03664 -3.74294,-4.54514 -8.96053,-6.81611 -15.69568,-6.81611 z m 45.58019,0 c -1.85538,0 -3.7054,0.4987 -5.51252,1.49396 -1.74277,0.93305 -2.92785,2.05432 -3.54453,3.3606 l -1.12073,-3.73275 h -9.99011 v 42.39387 h 11.58273 v -30.44328 c 0.98668,-2.17766 2.54713,-3.26622 4.66527,-3.26622 2.30046,0 4.48294,1.18186 6.52601,3.54721 l 9.90431,-5.416 c -2.73481,-5.29213 -6.90674,-7.93739 -12.51043,-7.93739 z m 30.39931,0 c -4.92802,0 -9.19111,1.64947 -12.79999,4.94947 -4.73498,4.42021 -7.08906,10.70706 -7.08906,18.86269 0,5.72756 1.44784,10.45985 4.3757,14.19582 3.43192,4.41967 8.26342,6.62951 14.48378,6.62951 5.11034,0 9.05705,-2.08704 11.86693,-6.2579 0,9.33858 -3.37293,14.00867 -10.09199,14.00867 -4.74034,0 -9.00343,-1.24568 -12.79999,-3.73596 l -2.98148,5.97583 c 4.90121,4.48294 10.73548,6.72549 17.45453,6.72549 6.47239,0 11.4594,-1.89989 14.95031,-5.69806 3.5338,-3.85877 5.31411,-9.36968 5.30339,-16.5306 v -38.00315 h -9.05706 l -0.92233,4.57464 c 0,-0.62043 -0.90087,-1.55616 -2.71336,-2.8013 -2.74017,-1.92939 -6.05948,-2.89515 -9.97938,-2.89515 z m -169.47252,8.31168 c 5.60369,0 8.57444,3.05012 8.87473,9.15143 h -18.03366 c 0.68102,-6.10131 3.73757,-9.15143 9.15893,-9.15143 z m 93.40722,0 c 5.59832,0 8.55299,3.05012 8.86937,9.15143 h -18.02294 c 0.68102,-6.10131 3.73757,-9.15143 9.15357,-9.15143 z m -185.90283,0.0912 c 6.04339,0 9.06241,4.66902 9.06241,14.00706 0,8.9659 -3.01902,13.4483 -9.06241,13.4483 -6.03804,0 -9.06242,-4.4824 -9.06242,-13.4483 0,-9.33804 3.02438,-14.00706 9.06242,-14.00706 z m 46.17005,0 c 2.05915,0 3.82874,0.68853 5.3302,2.0554 1.54437,1.30681 2.54177,2.98631 2.97076,5.04117 v 11.8605 c -0.32174,2.30314 -1.42103,4.35693 -3.34612,6.16244 -1.93046,1.74438 -4.02179,2.61577 -6.2579,2.61577 -6.04339,0 -9.06241,-4.63738 -9.06241,-13.91429 0,-4.2336 0.93305,-7.59366 2.80452,-10.08341 1.86611,-2.49083 4.38642,-3.73758 7.56095,-3.73758 z m 218.30767,0 c 2.00017,0 3.79657,0.71856 5.42673,2.14924 1.68378,1.37063 2.64901,3.01848 2.90104,4.94733 v 10.74084 c 0,2.6769 -0.94378,5.00953 -2.80988,7.00272 -1.87147,1.92939 -4.08077,2.89515 -6.63326,2.89515 -6.10238,0 -9.15894,-4.63738 -9.15894,-13.91429 0,-4.2336 0.93306,-7.59366 2.80452,-10.08341 1.86611,-2.49083 4.36498,-3.73758 7.46979,-3.73758 z m -125.46886,0.0965 c 2.85815,0 5.09426,1.24354 6.72442,3.73436 1.60871,2.49029 2.42915,5.88199 2.42915,10.17886 0,4.35747 -0.87406,7.78349 -2.6222,10.27432 -1.74277,2.48921 -4.10758,3.73435 -7.0837,3.73435 -2.31654,0 -4.34888,-0.77968 -6.08629,-2.33477 -1.69451,-1.55831 -2.62757,-3.48716 -2.7938,-5.78815 v -10.18208 c 0,-2.67636 0.90088,-4.94733 2.69728,-6.81558 1.87146,-1.86611 4.11294,-2.80131 6.73514,-2.80131 z"
         style="font-style:normal;font-variant:normal;font-weight:bold;font-stretch:normal;font-size:17.8986px;line-height:1.25;font-family:Tajawal;-inkscape-font-specification:'Tajawal Bold';font-variant-ligatures:normal;font-variant-caps:normal;font-variant-numeric:normal;font-variant-east-asian:normal;letter-spacing:-0.284861px;word-spacing:0px;fill:#ffffff;fill-opacity:1;stroke:none;stroke-width:2.33458"
         id="path6736-5"
         sodipodi:nodetypes="scscsccscscsccscccccscscsccccccscscscccccscscscscsscscsccscccscsscscsccscccscsscccccccsccsscscscsccscsccccssccssccsssssssccccsscssccscsscsscscsccscs" />
      <g
         id="g6933-6"
         transform="matrix(2.8673221,0,0,2.8673221,-31839.065,5775.0818)">
        <path
           id="path6733-2"
           style="font-variation-settings:normal;opacity:0.5;vector-effect:none;fill:url(#linearGradient931);fill-opacity:1;stroke:none;stroke-width:3.67846;stroke-linecap:butt;stroke-linejoin:miter;stroke-miterlimit:2;stroke-dasharray:none;stroke-dashoffset:0;stroke-opacity:1;paint-order:stroke markers fill;stop-color:#000000;stop-opacity:1"
           d="m 42519.285,-7078.7891 a 0.76086879,0.56791688 0 0 0 -0.738,0.6739 l 33.586,125.8886 a 87.182358,87.182358 0 0 0 39.381,-33.7636 l -71.565,-92.5196 a 0.76086879,0.56791688 0 0 0 -0.664,-0.2793 z"
           transform="scale(0.26458333)" />
        <path
           id="circle6810-9"
           style="opacity:1;fill:#ffffff;fill-opacity:1;stroke:none;stroke-width:2.01453px;stroke-opacity:1;paint-order:stroke markers fill;stop-color:#000000"
           d="m 42517.32,-7119.4805 a 87.182358,87.182358 0 0 0 -86.855,87.1817 87.182358,87.182358 0 0 0 13.312,46.3047 l 72.688,-93.9727 a 1.3609979,1.0158567 0 0 1 2.359,0 l 72.692,93.9766 a 87.182358,87.182358 0 0 0 13.314,-46.3086 87.182358,87.182358 0 0 0 -87.182,-87.1817 87.182358,87.182358 0 0 0 -0.328,0 z"
           transform="scale(0.26458333)" />
      </g>
    </g>
  </g>
</svg>
